Filter MiteMap result — filter_mitemap • MiteMapTools
…
#> Row removed when clearing bad x values: 24537
#> Row removed when clearing bad y values: 93
#> Row removed when clearing for run with times sup to maximum_time: 814
filter_mitemap(MM_example,
  HH = HH_example$resulting_data,
  bad_range_value_x = 50, bad_range_value_y = 50
)
#> Row removed when clearing the first secondes: 536
#> Row removed when clearing bad x range: 16860
#> Row removed when clearing bad y range: 0
#> Row removed when clearing bad x values: 24537
#> Row removed when clearing bad y values: 93
#> Row removed when clearing for bad HH and/or CH: 814
#> Row removed when clearing for run with times sup to maximum_time814
#> # A tibble: 78,785 × 12
#> # Groups:   File_name [35]
#>    File_name X..t.s. x.mm. y.mm. Immobile..si..1. Run_number Date             
#>    <chr>       <dbl> <dbl> <dbl>            <dbl>      <int> <dttm>           
#>  1 MM062022…    17.8  41.9  31.9                0         20 22-03-19 00:00:00
#>  2 MM062022…    18    41.8  32.1                0         20 22-03-19 00:00:00
#>  3 MM062022…    18.2  41.5  32.3                0         20 22-03-19 00:00:00
#>  4 MM062022…    18.4  41.4  32.5                0         20 22-03-19 00:00:00
#>  5 MM062022…    18.6  41.3  32.7                0         20 22-03-19 00:00:00
#>  6 MM062022…    18.8  41    33                  0         20 22-03-19 00:00:00
#>  7 MM062022…    19    40.9  33.3                0         20 22-03-19 00:00:00
#>  8 MM062022…    19.2  40.6  33.5                0         20 22-03-19 00:00:00
#>  9 MM062022…    19.4  40.5  33.6                0         20 22-03-19 00:00:00
#> 10 MM062022…    19.6  40.2  33.8                0         20 22-03-19 00:00:00
#> # ℹ 78,775 more rows
#> # ℹ 5 more variables: Start_time <chr>, Farm <chr>, MiteMap_number <chr>,
#> #   Bag <int>, Modality <chr>
…
